…
3.애니메이션 만들기

------------------------------------------------------------------------

래스터 그리기에 앞서, nc파일 데이터를 데이터프레임 형태로 변환하는 방법은 ’R을 이용한 NetCDF 데이터 확인하기 튜토리얼’을 참고하기 바란다.

### 데이터 프레임 데이터 전처리하기

데이터 프레임 형태로 저장된 COBE 데이터를 확인해보면 날짜, 위경도, 표층수온 값으로 이루어져있다. COBE자료의 경우 월평균 자료이기 때문에, 연평균 자료를 확인하기 위해 데이터 전처리 과정을 거친다.

``` r
cobe
```

    ## # A tibble: 852,720 x 4
    ##    date                  lon   lat   SST
    ##    <dttm>              <dbl> <dbl> <dbl>
    ##  1 1850-01-01 00:00:00  118.  23.5  17.2
    ##  2 1850-02-01 00:00:00  118.  23.5  17.2
    ##  3 1850-03-01 00:00:00  118.  23.5  18.8
    ##  4 1850-04-01 00:00:00  118.  23.5  21.0
    ##  5 1850-05-01 00:00:00  118.  23.5  23.6
    ##  6 1850-06-01 00:00:00  118.  23.5  25.9
    ##  7 1850-07-01 00:00:00  118.  23.5  27.1
    ##  8 1850-08-01 00:00:00  118.  23.5  27.2
    ##  9 1850-09-01 00:00:00  118.  23.5  26.9
    ## 10 1850-10-01 00:00:00  118.  23.5  25.3
    ## # ... with 852,710 more rows
…
연도 컬럼을 사용하여 정점 및 연도 별 표층수온 평균값을 계산한 새로운 데이터 프레임을 생성한다. 평균값 계산시 조건을 지정할 때 사용하는 [`group_by`](https://www.rdocumentation.org/packages/dplyr/versions/0.7.8/topics/group_by) 함수를 사용하기 위해서는 [`dplyr`](https://www.rdocumentation.org/packages/dbplyr/versions/1.4.2)패키지의 설치와 선언을 해야한다.

``` r
install.packages("dplyr")
```

``` r
library(dplyr)
cobe_yearly <- cobe %>% group_by(year, lon, lat) %>% summarise_at(.vars = "SST", .funs=mean)

cobe_yearly
```

    ## # A tibble: 71,060 x 4
    ## # Groups:   year, lon [4,420]
    ##     year   lon   lat   SST
    ##    <int> <dbl> <dbl> <dbl>
    ##  1  1850  118.  23.5  22.8
    ##  2  1850  118.  23.5  23.1
    ##  3  1850  118.  24.5  22.8
    ##  4  1850  118.  38.5  12.1
    ##  5  1850  120.  23.5  23.7
    ##  6  1850  120.  24.5  22.9
    ##  7  1850  120.  25.5  22.8
    ##  8  1850  120.  35.5  14.4
    ##  9  1850  120.  37.5  12.3
    ## 10  1850  120.  38.5  11.9
    ## # ... with 71,050 more rows
…
